{
    "names": [
        "Spiderman",
        "Superman",
        "Batman",
        "Wonderwoman",
        "Ironman",
        "Captain America",
        "Thor",
        "Wolverine",
        "Storm",
        "Flash",
        "Aquaman",
        "Deadpool"
    ]
}
